Gene set testing for Illumina HumanMethylation Arrays
…
targets <- read_csv(here("data/datasets/SRP100803/SraRunTable.txt"))

── Column specification ────────────────────────────────────────────────────────
cols(
  .default = col_character(),
  AvgSpotLen = col_double(),
  Bases = col_double(),
  Bytes = col_double(),
  ReleaseDate = col_datetime(format = "")
)
ℹ Use `spec()` for the full column specifications.

targets

# A tibble: 34 x 26
   Run   `Assay Type` AvgSpotLen  Bases BioProject BioSample  Bytes Cell_Line
   <chr> <chr>             <dbl>  <dbl> <chr>      <chr>      <dbl> <chr>    
 1 SRR5… RNA-Seq             150 8.17e9 PRJNA3771… SAMN0646… 2.85e9 AU565    
 2 SRR5… RNA-Seq             150 6.75e9 PRJNA3771… SAMN0646… 2.55e9 SKBR3    
 3 SRR5… RNA-Seq             150 7.94e9 PRJNA3771… SAMN0646… 2.76e9 SKBR3    
 4 SRR5… RNA-Seq             150 7.61e9 PRJNA3771… SAMN0646… 2.73e9 AU565    
 5 SRR5… RNA-Seq             150 9.69e9 PRJNA3771… SAMN0646… 3.73e9 SKBR3    
 6 SRR5… RNA-Seq             150 7.26e9 PRJNA3771… SAMN0646… 2.52e9 SKBR3    
 7 SRR5… RNA-Seq             150 8.23e9 PRJNA3771… SAMN0646… 2.85e9 SKBR3    
 8 SRR5… RNA-Seq             150 9.43e9 PRJNA3771… SAMN0646… 3.23e9 SKBR3    
 9 SRR5… RNA-Seq             150 8.75e9 PRJNA3771… SAMN0646… 3.00e9 SKBR3    
10 SRR5… RNA-Seq             150 6.72e9 PRJNA3771… SAMN0646… 2.71e9 SKBR3    
# … with 24 more rows, and 18 more variables: `Center Name` <chr>,
#   Consent <chr>, `DATASTORE filetype` <chr>, `DATASTORE provider` <chr>,
#   `DATASTORE region` <chr>, Experiment <chr>, `GEO_Accession (exp)` <chr>,
#   Instrument <chr>, LibraryLayout <chr>, LibrarySelection <chr>,
#   LibrarySource <chr>, Organism <chr>, Platform <chr>, ReleaseDate <dttm>,
#   `Sample Name` <chr>, source_name <chr>, `SRA Study` <chr>, Treatment <chr>
…
