Gene set testing for Illumina HumanMethylation Arrays
…
Load sample information and file names.

targets <- read_csv(here("data/datasets/SRP125125/SraRunTableFull.txt"))

── Column specification ────────────────────────────────────────────────────────
cols(
  .default = col_character()
)
ℹ Use `spec()` for the full column specifications.

targets$Cell_type <- gsub(" ", "_", targets$Cell_type)
targets$Cell_type <- gsub("-", "_", targets$Cell_type)
targets

# A tibble: 24 x 27
   Run    `Assay Type` AvgSpotLen Bases BioProject BioSample Bytes `Center Name`
   <chr>  <chr>        <chr>      <chr> <chr>      <chr>     <chr> <chr>        
 1 SRR62… RNA-Seq      100        1342… PRJNA4187… SAMN0803… 6876… GEO          
 2 SRR62… RNA-Seq      100        1427… PRJNA4187… SAMN0803… 7340… GEO          
 3 SRR62… RNA-Seq      100        1570… PRJNA4187… SAMN0803… 8071… GEO          
 4 SRR62… RNA-Seq      100        1904… PRJNA4187… SAMN0803… 9742… GEO          
 5 SRR62… RNA-Seq      100        1470… PRJNA4187… SAMN0803… 7564… GEO          
 6 SRR62… RNA-Seq      100        1248… PRJNA4187… SAMN0803… 6610… GEO          
 7 SRR62… RNA-Seq      100        2184… PRJNA4187… SAMN0803… 1114… GEO          
 8 SRR62… RNA-Seq      100        2065… PRJNA4187… SAMN0803… 1056… GEO          
 9 SRR62… RNA-Seq      100        1984… PRJNA4187… SAMN0803… 1014… GEO          
10 SRR62… RNA-Seq      100        2082… PRJNA4187… SAMN0803… 1064… GEO          
# … with 14 more rows, and 19 more variables: Consent <chr>,
#   DATASTORE filetype <chr>, DATASTORE provider <chr>, DATASTORE region <chr>,
#   Experiment <chr>, GEO_Accession (exp) <chr>, Instrument <chr>,
#   LibraryLayout <chr>, LibrarySelection <chr>, LibrarySource <chr>,
#   Organism <chr>, Platform <chr>, ReleaseDate <chr>, Sample Name <chr>,
#   SRA Study <chr>, Cell_type <chr>, disease_status <chr>, gender <chr>,
#   source_name <chr>
…
