Gene set testing for Illumina HumanMethylation Arrays
…
fig <- here("output/figures/SFig-11B.rds")
saveRDS(p[[2]], fig, compress = FALSE)

Terms NOT in top 100 "truth" GO categories for Stage 2 versus Stage 3.

terms <- missMethyl:::.getGO()$idTable
dat %>% dplyr::filter(contrast == "S2vS3") %>%
    arrange(method, P.DE) %>%
    group_by(method) %>%
    dplyr::filter(!(GO %in% topGOSets$ID[topGOSets$contrast %in% "S2vS3"])) %>%
    inner_join(terms, by = c("GO" = "GOID"))

# A tibble: 123 x 7
# Groups:   method [2]
   GO            P.DE method  contrast  rank ONTOLOGY TERM                      
   <chr>        <dbl> <chr>   <chr>    <int> <chr>    <chr>                     
 1 GO:0042…   1.87e-7 GOregi… S2vS3        8 BP       B cell proliferation      
 2 GO:0051…   2.36e-6 GOregi… S2vS3       14 BP       positive regulation of ly…
 3 GO:0030…   2.92e-6 GOregi… S2vS3       15 BP       regulation of B cell prol…
 4 GO:0046…   3.95e-6 GOregi… S2vS3       17 BP       lymphocyte proliferation  
 5 GO:0032…   4.35e-6 GOregi… S2vS3       18 BP       mononuclear cell prolifer…
 6 GO:1903…   6.44e-6 GOregi… S2vS3       19 BP       regulation of leukocyte c…
 7 GO:0002…   1.17e-5 GOregi… S2vS3       22 BP       positive regulation of le…
 8 GO:0070…   1.35e-5 GOregi… S2vS3       23 BP       leukocyte proliferation   
 9 GO:0050…   1.81e-5 GOregi… S2vS3       24 BP       positive regulation of ce…
10 GO:0007…   1.99e-5 GOregi… S2vS3       25 BP       leukocyte cell-cell adhes…
# … with 113 more rows

Top 100 "truth" terms for Stage 2 versus Stage 3 - these look very broad.

topGOSets[topGOSets$contrast == "S2vS3",]

# A tibble: 100 x 9
# Groups:   contrast [1]
   ID       Term              Ont       N    DE     P.DE      FDR contrast  rank
   <chr>    <chr>             <chr> <dbl> <dbl>    <dbl>    <dbl> <chr>    <int>
 1 GO:0005… plasma membrane   CC     4953   332 1.80e-20 4.05e-16 S2vS3        1
 2 GO:0071… cell periphery    CC     5055   334 1.43e-19 1.61e-15 S2vS3        2
 3 GO:0002… immune system pr… BP     2750   213 7.03e-19 5.28e-15 S2vS3        3
 4 GO:0006… immune response   BP     1837   159 3.42e-18 1.93e-14 S2vS3        4
 5 GO:0051… cellular respons… BP     6912   414 1.53e-17 6.89e-14 S2vS3        5
 6 GO:0001… cell activation   BP     1320   125 2.97e-17 1.12e-13 S2vS3        6
 7 GO:0048… regulation of re… BP     3935   270 3.90e-17 1.25e-13 S2vS3        7
 8 GO:0050… response to stim… BP     8272   471 1.17e-16 3.29e-13 S2vS3        8
 9 GO:0005… cytoplasm         CC    10568   565 4.48e-16 1.12e-12 S2vS3        9
10 GO:0016… membrane          CC     8379   473 5.67e-16 1.28e-12 S2vS3       10
# … with 90 more rows
…
